Template Title
…
6 Checklist

7 Example announcements
7.1 Exam viewing announcement

7.2 R/AA Exam Offers - deciphering the code

7.3 Email to RAA

1 Grade summary

1.1 Table

## # A tibble: 63 x 30
##    ID       A1    A2    A3    A4    A5     P  OQ01  OQ02  OQ03  OQ04  OQ05  OQ06
##    <chr> <dbl> <dbl> <dbl> <dbl> <dbl> <dbl> <dbl> <dbl> <dbl> <dbl> <dbl> <dbl>
##  1 Tota 1     1     1     1     1     1     1     1       1    1    1     1    
##  2 1     0.973 1     0.917 0.969 0.978 0.924 1     1       1    1    1     1    
##  3 2     1     0.905 0.95  0.878 0.913 0.829 1     1       1    0.75 0.667 1    
##  4 3     1     0.929 0.967 0.694 0.891 0.762 1     1       0.5  0.75 0.667 0.333
##  5 4     1     0.929 0.983 0.663 0.957 0.829 1     1       0    0    0.667 1    
##  6 5     1     0.929 0.833 0.776 0.870 0.914 1     1       1    0.75 1     1    
##  7 6     0.973 0.905 1     0.929 0.891 0.914 0.833 1       0.5  1    1     1    
##  8 7     0     0.929 0.783 0.837 0.870 0.886 1     0.667   0.5  1    0.667 0.333
##  9 8     0.865 0.976 0.967 0.867 0.957 1.02  1     1       1    1    1     1    
## 10 9     0.932 0.952 1     1     0.957 1.02  1     1       1    1    1     1    
## #  with 53 more rows, and 17 more variables: OQ07 <dbl>, OQ08 <dbl>, Q1 <dbl>,
## #   Q2 <dbl>, Q3 <dbl>, Q4 <dbl>, Q5 <dbl>, Q6 <dbl>, E <dbl>, A <dbl>,
## #   OQ <dbl>, E_70 <dbl>, A_20 <dbl>, OQ_5 <dbl>, P_5 <dbl>, total <dbl>,
## #   grade <fct>
…
