Analysing course marks: an example • examMarkR
…
      analyis-marks.Rmd

Libraries

library(tidyverse)
library(examMarkR)

Get data

There is some in-built data to play with. This is the anonomised SMI 2018 data.

data("SMI_2018_marks")
SMI_2018_marks

## # A tibble: 63 x 21
##    ID    `Assignment 1 (… `Assignment 2 (… `Assignment 3 (… `Assignment 4 (…
##    <chr> <chr>            <chr>                       <dbl>            <dbl>
##  1 Tota… 37               42                           30               49  
##  2 1     36               42                           27.5             47.5
##  3 2     37               38                           28.5             43  
##  4 3     37               39                           29               34  
##  5 4     37               39                           29.5             32.5
##  6 5     37               39                           25               38  
##  7 6     36               38                           30               45.5
##  8 7     <NA>             39                           23.5             41  
##  9 8     32               41                           29               42.5
## 10 9     34.5             40                           30               49  
## # … with 53 more rows, and 16 more variables: `Assignment 5 (84889)` <dbl>,
## #   `Project (85361)` <dbl>, `Model selection (85555)` <dbl>, `Information
## #   criteria (85704)` <dbl>, `Cross-validation (85733)` <dbl>, `Polynomial
## #   regression (85735)` <dbl>, `Representing categorical variables in R
## #   (86463)` <dbl>, `One-way ANOVA (86466)` <dbl>, `Two-way ANOVA
## #   (86470)` <dbl>, `ANCOVA (86471)` <dbl>, Q1 <dbl>, Q2 <dbl>, Q3 <dbl>,
## #   Q4 <dbl>, Q5 <dbl>, Q6 <dbl>
…
