Case study • examMarkR
…
      Scaling data

      Case study

      Case_study.Rmd

library(examMarkR)
library(tidyverse)

Getting data

In this case, we have some built in raw data that we will use:

raw_data
#> # A tibble: 63 x 21
#>    ID    `Assignment 1 (… `Assignment 2 (… `Assignment 3 (… `Assignment 4 (…
#>    <chr> <chr>            <chr>                       <dbl>            <dbl>
#>  1 Tota… 37               42                           30               49  
#>  2 1     36               42                           27.5             47.5
#>  3 2     37               38                           28.5             43  
#>  4 3     37               39                           29               34  
#>  5 4     37               39                           29.5             32.5
#>  6 5     37               39                           25               38  
#>  7 6     36               38                           30               45.5
#>  8 7     <NA>             39                           23.5             41  
#>  9 8     32               41                           29               42.5
#> 10 9     34.5             40                           30               49  
#> # … with 53 more rows, and 16 more variables: `Assignment 5 (84889)` <dbl>,
#> #   `Project (85361)` <dbl>, `Model selection (85555)` <dbl>, `Information
#> #   criteria (85704)` <dbl>, `Cross-validation (85733)` <dbl>, `Polynomial
#> #   regression (85735)` <dbl>, `Representing categorical variables in R
#> #   (86463)` <dbl>, `One-way ANOVA (86466)` <dbl>, `Two-way ANOVA
#> #   (86470)` <dbl>, `ANCOVA (86471)` <dbl>, Q1 <dbl>, Q2 <dbl>, Q3 <dbl>,
#> #   Q4 <dbl>, Q5 <dbl>, Q6 <dbl>
…
Exam questions Q1 to Q6.

Cleaning the data

Rename columns

First we rename the columns

colnames(raw_data)  <- c("ID",
                         str_c("A", 1:5),
                         "P",
                         str_c("OQ0", 1:8),
                         str_c("Q", 1:6))
raw_data
#> # A tibble: 63 x 21
#>    ID    A1    A2       A3    A4    A5     P  OQ01  OQ02  OQ03  OQ04  OQ05  OQ06
#>    <chr> <chr> <chr> <dbl> <dbl> <dbl> <dbl> <dbl> <dbl> <dbl> <dbl> <dbl> <dbl>
#>  1 Tota… 37    42     30    49      46   105   3       3     2     4     3     3
#>  2 1     36    42     27.5  47.5    45    97   3       3     2     4     3     3
#>  3 2     37    38     28.5  43      42    87   3       3     2     3     2     3
#>  4 3     37    39     29    34      41    80   3       3     1     3     2     1
#>  5 4     37    39     29.5  32.5    44    87   3       3     0    NA     2     3
#>  6 5     37    39     25    38      40    96   3       3     2     3     3     3
#>  7 6     36    38     30    45.5    41    96   2.5     3     1     4     3     3
#>  8 7     <NA>  39     23.5  41      40    93   3       2     1     4     2     1
#>  9 8     32    41     29    42.5    44   107   3       3     2     4     3     3
#> 10 9     34.5  40     30    49      44   107   3       3     2     4     3     3
#> # … with 53 more rows, and 8 more variables: OQ07 <dbl>, OQ08 <dbl>, Q1 <dbl>,
#> #   Q2 <dbl>, Q3 <dbl>, Q4 <dbl>, Q5 <dbl>, Q6 <dbl>

Exemptions

In canvas any piece of assessment that has not be submitted has a blank cell. When we import this into R, it is represented by an NA. Also any exemptions in canvas are indicated as EX.

We would like to set missing marks to 0, and then exemptions to missing. This way any exemption will not be incorporated into the final mark.

The function to do this is

marks  <-
  raw_data %>%
  exam_canvas_clean("^A|^P|^OQ|^Q")
marks
#> # A tibble: 63 x 21
#>    ID       A1    A2    A3    A4    A5     P  OQ01  OQ02  OQ03  OQ04  OQ05  OQ06
#>    <chr> <dbl> <dbl> <dbl> <dbl> <dbl> <dbl> <dbl> <dbl> <dbl> <dbl> <dbl> <dbl>
#>  1 Tota…  37      42  30    49      46   105   3       3     2     4     3     3
#>  2 1      36      42  27.5  47.5    45    97   3       3     2     4     3     3
#>  3 2      37      38  28.5  43      42    87   3       3     2     3     2     3
#>  4 3      37      39  29    34      41    80   3       3     1     3     2     1
#>  5 4      37      39  29.5  32.5    44    87   3       3     0     0     2     3
#>  6 5      37      39  25    38      40    96   3       3     2     3     3     3
#>  7 6      36      38  30    45.5    41    96   2.5     3     1     4     3     3
#>  8 7       0      39  23.5  41      40    93   3       2     1     4     2     1
#>  9 8      32      41  29    42.5    44   107   3       3     2     4     3     3
#> 10 9      34.5    40  30    49      44   107   3       3     2     4     3     3
#> # … with 53 more rows, and 8 more variables: OQ07 <dbl>, OQ08 <dbl>, Q1 <dbl>,
#> #   Q2 <dbl>, Q3 <dbl>, Q4 <dbl>, Q5 <dbl>, Q6 <dbl>
This function takes a data frame and a regular expression. In this case we choose all columns that start with an A, or a P, or OQ, or Q.

Consolidate marks

Get totals

For the exam, we have the marks for each question, but not the total exam mark. We will add this.

marks  <-
  marks %>%
  mutate(
    E = exam_calculate_total(marks, "^Q")
  )
marks
#> # A tibble: 63 x 22
#>    ID       A1    A2    A3    A4    A5     P  OQ01  OQ02  OQ03  OQ04  OQ05  OQ06
#>    <chr> <dbl> <dbl> <dbl> <dbl> <dbl> <dbl> <dbl> <dbl> <dbl> <dbl> <dbl> <dbl>
#>  1 Tota…  37      42  30    49      46   105   3       3     2     4     3     3
#>  2 1      36      42  27.5  47.5    45    97   3       3     2     4     3     3
#>  3 2      37      38  28.5  43      42    87   3       3     2     3     2     3
#>  4 3      37      39  29    34      41    80   3       3     1     3     2     1
#>  5 4      37      39  29.5  32.5    44    87   3       3     0     0     2     3
#>  6 5      37      39  25    38      40    96   3       3     2     3     3     3
#>  7 6      36      38  30    45.5    41    96   2.5     3     1     4     3     3
#>  8 7       0      39  23.5  41      40    93   3       2     1     4     2     1
#>  9 8      32      41  29    42.5    44   107   3       3     2     4     3     3
#> 10 9      34.5    40  30    49      44   107   3       3     2     4     3     3
#> # … with 53 more rows, and 9 more variables: OQ07 <dbl>, OQ08 <dbl>, Q1 <dbl>,
#> #   Q2 <dbl>, Q3 <dbl>, Q4 <dbl>, Q5 <dbl>, Q6 <dbl>, E <dbl>

Convert to proportions

First, we will convert all of the marks to proportions. This is done with exam_calculate_prop(). Again this takes a data frame and a regular expression. It also assumes that one of the rows has the totals.

marks  <-
  marks %>%
  exam_calculate_prop("^A|^P|^OQ|^Q|E", 1)
marks
#> # A tibble: 63 x 22
#>    ID       A1    A2    A3    A4    A5     P  OQ01  OQ02  OQ03  OQ04  OQ05  OQ06
#>    <chr> <dbl> <dbl> <dbl> <dbl> <dbl> <dbl> <dbl> <dbl> <dbl> <dbl> <dbl> <dbl>
#>  1 Tota… 1     1     1     1     1     1     1     1       1    1    1     1    
#>  2 1     0.973 1     0.917 0.969 0.978 0.924 1     1       1    1    1     1    
#>  3 2     1     0.905 0.95  0.878 0.913 0.829 1     1       1    0.75 0.667 1    
#>  4 3     1     0.929 0.967 0.694 0.891 0.762 1     1       0.5  0.75 0.667 0.333
#>  5 4     1     0.929 0.983 0.663 0.957 0.829 1     1       0    0    0.667 1    
#>  6 5     1     0.929 0.833 0.776 0.870 0.914 1     1       1    0.75 1     1    
#>  7 6     0.973 0.905 1     0.929 0.891 0.914 0.833 1       0.5  1    1     1    
#>  8 7     0     0.929 0.783 0.837 0.870 0.886 1     0.667   0.5  1    0.667 0.333
#>  9 8     0.865 0.976 0.967 0.867 0.957 1.02  1     1       1    1    1     1    
#> 10 9     0.932 0.952 1     1     0.957 1.02  1     1       1    1    1     1    
#> # … with 53 more rows, and 9 more variables: OQ07 <dbl>, OQ08 <dbl>, Q1 <dbl>,
#> #   Q2 <dbl>, Q3 <dbl>, Q4 <dbl>, Q5 <dbl>, Q6 <dbl>, E <dbl>

Get mean proportion

For the assignments and online quizzes, we will now get the mean proportion.

marks  <-
  marks %>%
  mutate(
    A = exam_calculate_mean(marks, "^A"),
    OQ = exam_calculate_mean(marks, "^OQ"))
marks
#> # A tibble: 63 x 24
#>    ID       A1    A2    A3    A4    A5     P  OQ01  OQ02  OQ03  OQ04  OQ05  OQ06
#>    <chr> <dbl> <dbl> <dbl> <dbl> <dbl> <dbl> <dbl> <dbl> <dbl> <dbl> <dbl> <dbl>
#>  1 Tota… 1     1     1     1     1     1     1     1       1    1    1     1    
#>  2 1     0.973 1     0.917 0.969 0.978 0.924 1     1       1    1    1     1    
#>  3 2     1     0.905 0.95  0.878 0.913 0.829 1     1       1    0.75 0.667 1    
#>  4 3     1     0.929 0.967 0.694 0.891 0.762 1     1       0.5  0.75 0.667 0.333
#>  5 4     1     0.929 0.983 0.663 0.957 0.829 1     1       0    0    0.667 1    
#>  6 5     1     0.929 0.833 0.776 0.870 0.914 1     1       1    0.75 1     1    
#>  7 6     0.973 0.905 1     0.929 0.891 0.914 0.833 1       0.5  1    1     1    
#>  8 7     0     0.929 0.783 0.837 0.870 0.886 1     0.667   0.5  1    0.667 0.333
#>  9 8     0.865 0.976 0.967 0.867 0.957 1.02  1     1       1    1    1     1    
#> 10 9     0.932 0.952 1     1     0.957 1.02  1     1       1    1    1     1    
#> # … with 53 more rows, and 11 more variables: OQ07 <dbl>, OQ08 <dbl>, Q1 <dbl>,
#> #   Q2 <dbl>, Q3 <dbl>, Q4 <dbl>, Q5 <dbl>, Q6 <dbl>, E <dbl>, A <dbl>,
#> #   OQ <dbl>
…
online quizzes 5%, and

project 5%.

marks  <-
  marks %>%
  mutate(
    E_70 = E * 70,
    A_20 = A * 20,
    OQ_5 = OQ * 5,
    P_5 = P * 5
  )
marks
#> # A tibble: 63 x 28
#>    ID       A1    A2    A3    A4    A5     P  OQ01  OQ02  OQ03  OQ04  OQ05  OQ06
#>    <chr> <dbl> <dbl> <dbl> <dbl> <dbl> <dbl> <dbl> <dbl> <dbl> <dbl> <dbl> <dbl>
#>  1 Tota… 1     1     1     1     1     1     1     1       1    1    1     1    
#>  2 1     0.973 1     0.917 0.969 0.978 0.924 1     1       1    1    1     1    
#>  3 2     1     0.905 0.95  0.878 0.913 0.829 1     1       1    0.75 0.667 1    
#>  4 3     1     0.929 0.967 0.694 0.891 0.762 1     1       0.5  0.75 0.667 0.333
#>  5 4     1     0.929 0.983 0.663 0.957 0.829 1     1       0    0    0.667 1    
#>  6 5     1     0.929 0.833 0.776 0.870 0.914 1     1       1    0.75 1     1    
#>  7 6     0.973 0.905 1     0.929 0.891 0.914 0.833 1       0.5  1    1     1    
#>  8 7     0     0.929 0.783 0.837 0.870 0.886 1     0.667   0.5  1    0.667 0.333
#>  9 8     0.865 0.976 0.967 0.867 0.957 1.02  1     1       1    1    1     1    
#> 10 9     0.932 0.952 1     1     0.957 1.02  1     1       1    1    1     1    
#> # … with 53 more rows, and 15 more variables: OQ07 <dbl>, OQ08 <dbl>, Q1 <dbl>,
#> #   Q2 <dbl>, Q3 <dbl>, Q4 <dbl>, Q5 <dbl>, Q6 <dbl>, E <dbl>, A <dbl>,
#> #   OQ <dbl>, E_70 <dbl>, A_20 <dbl>, OQ_5 <dbl>, P_5 <dbl>

Get total for course

Get total and also round.

marks  <-
  marks %>%
  mutate(
    total = E_70 + A_20 + OQ_5 + P_5,
    total = round(total))
marks
#> # A tibble: 63 x 29
#>    ID       A1    A2    A3    A4    A5     P  OQ01  OQ02  OQ03  OQ04  OQ05  OQ06
#>    <chr> <dbl> <dbl> <dbl> <dbl> <dbl> <dbl> <dbl> <dbl> <dbl> <dbl> <dbl> <dbl>
#>  1 Tota… 1     1     1     1     1     1     1     1       1    1    1     1    
#>  2 1     0.973 1     0.917 0.969 0.978 0.924 1     1       1    1    1     1    
#>  3 2     1     0.905 0.95  0.878 0.913 0.829 1     1       1    0.75 0.667 1    
#>  4 3     1     0.929 0.967 0.694 0.891 0.762 1     1       0.5  0.75 0.667 0.333
#>  5 4     1     0.929 0.983 0.663 0.957 0.829 1     1       0    0    0.667 1    
#>  6 5     1     0.929 0.833 0.776 0.870 0.914 1     1       1    0.75 1     1    
#>  7 6     0.973 0.905 1     0.929 0.891 0.914 0.833 1       0.5  1    1     1    
#>  8 7     0     0.929 0.783 0.837 0.870 0.886 1     0.667   0.5  1    0.667 0.333
#>  9 8     0.865 0.976 0.967 0.867 0.957 1.02  1     1       1    1    1     1    
#> 10 9     0.932 0.952 1     1     0.957 1.02  1     1       1    1    1     1    
#> # … with 53 more rows, and 16 more variables: OQ07 <dbl>, OQ08 <dbl>, Q1 <dbl>,
#> #   Q2 <dbl>, Q3 <dbl>, Q4 <dbl>, Q5 <dbl>, Q6 <dbl>, E <dbl>, A <dbl>,
#> #   OQ <dbl>, E_70 <dbl>, A_20 <dbl>, OQ_5 <dbl>, P_5 <dbl>, total <dbl>
…
  mutate(
    grade = exam_grade(total)
  )
#> # A tibble: 7 x 3
#>   grade lower upper
#>   <chr> <dbl> <dbl>
#> 1 FNS       0     0
#> 2 FNA       1    44
#> 3 FA       45    49
#> 4 P        50    64
#> 5 C        65    74
#> 6 D        75    84
#> 7 HD       85   100
marks
#> # A tibble: 63 x 30
#>    ID       A1    A2    A3    A4    A5     P  OQ01  OQ02  OQ03  OQ04  OQ05  OQ06
#>    <chr> <dbl> <dbl> <dbl> <dbl> <dbl> <dbl> <dbl> <dbl> <dbl> <dbl> <dbl> <dbl>
#>  1 Tota… 1     1     1     1     1     1     1     1       1    1    1     1    
#>  2 1     0.973 1     0.917 0.969 0.978 0.924 1     1       1    1    1     1    
#>  3 2     1     0.905 0.95  0.878 0.913 0.829 1     1       1    0.75 0.667 1    
#>  4 3     1     0.929 0.967 0.694 0.891 0.762 1     1       0.5  0.75 0.667 0.333
#>  5 4     1     0.929 0.983 0.663 0.957 0.829 1     1       0    0    0.667 1    
#>  6 5     1     0.929 0.833 0.776 0.870 0.914 1     1       1    0.75 1     1    
#>  7 6     0.973 0.905 1     0.929 0.891 0.914 0.833 1       0.5  1    1     1    
#>  8 7     0     0.929 0.783 0.837 0.870 0.886 1     0.667   0.5  1    0.667 0.333
#>  9 8     0.865 0.976 0.967 0.867 0.957 1.02  1     1       1    1    1     1    
#> 10 9     0.932 0.952 1     1     0.957 1.02  1     1       1    1    1     1    
#> # … with 53 more rows, and 17 more variables: OQ07 <dbl>, OQ08 <dbl>, Q1 <dbl>,
#> #   Q2 <dbl>, Q3 <dbl>, Q4 <dbl>, Q5 <dbl>, Q6 <dbl>, E <dbl>, A <dbl>,
#> #   OQ <dbl>, E_70 <dbl>, A_20 <dbl>, OQ_5 <dbl>, P_5 <dbl>, total <dbl>,
#> #   grade <fct>
…
